{
  "gitlens.codeLens.enabled": false,
  "workbench.startupEditor": "none",
  "diffEditor.codeLens": true,
  "redhat.telemetry.enabled": false,
  "vim.easymotion": true,
  "vim.useSystemClipboard": true,
  "vim.normalModeKeyBindingsNonRecursive": [
    {
      "before": ["<space>"],
      "commands": ["vspacecode.space"]
    },
    {
      "before": [","],
      "commands": [
        "vspacecode.space",
        {
          "command": "whichkey.triggerKey",
          "args": "m"
        }
      ]
    }
  ],
  "vim.visualModeKeyBindingsNonRecursive": [
    {
      "before": ["<space>"],
      "commands": ["vspacecode.space"]
    },
    {
      "before": [","],
      "commands": [
        "vspacecode.space",
        {
          "command": "whichkey.triggerKey",
          "args": "m"
        }
      ]
    }
  ],
  "[javascript]": {
    "editor.defaultFormatter": "esbenp.prettier-vscode"
  },
  "extensions.ignoreRecommendations": true,
  "editor.formatOnSave": true,
  "workbench.colorTheme": "Default Dark Modern",
  "[typescriptreact]": {
    "editor.defaultFormatter": "esbenp.prettier-vscode"
  },
  "editor.fontFamily": "'UbuntuMono Nerd Font', 'JetBrains Mono', Menlo, Monaco, 'Courier New', monospace",
  "editor.fontSize": 16,
  "terminal.integrated.fontSize": 16,
  "vscode-as-git-mergetool.settingsAssistantOnStartup": false,
  "[jsonc]": {
    "editor.defaultFormatter": "esbenp.prettier-vscode"
  },
  "[json]": {
    "editor.defaultFormatter": "esbenp.prettier-vscode"
  },
  "[typescript]": {
    "editor.defaultFormatter": "esbenp.prettier-vscode"
  },
  "[dockerfile]": {
    "editor.defaultFormatter": "ms-azuretools.vscode-docker"
  },
  "vs-kubernetes": {
    "vs-kubernetes.crd-code-completion": "enabled",
    "vscode-kubernetes.minikube-path-mac": "/Users/clayrisser/.vs-kubernetes/tools/minikube/darwin-arm64/minikube"
  },
  "[yaml]": {
    "editor.defaultFormatter": "esbenp.prettier-vscode"
  },
  "[html]": {
    "editor.defaultFormatter": "esbenp.prettier-vscode"
  },
  "[python]": {
    "editor.defaultFormatter": "ms-python.black-formatter"
  },
  "cSpell.userWords": ["leaderboard"],
  "lldb.library": "/Applications/Xcode.app/Contents/SharedFrameworks/LLDB.framework/Versions/A/LLDB",
  "lldb.launch.expressions": "native",
  "editor.minimap.enabled": true,
  "git.confirmSync": false,
  "cursor.cpp.disabledLanguages": [
    "plaintext",
    "markdown",
    "scminput"
  ]
}
